{
    "data": [{
            "id": 0,
            "title": "Babysitter",
            "category": "HouseHold",
            "start": "2018/10/30",
            "description": "Wellington is the capital city and second most populous urban area of New Zealand, with 412,500 residents. It is located at the south-western tip of the North Island",
        },
        {
            "id": 1,
            "title": "Newspaper Delivery Staff",
            "category": "Retail",
            "start": "2018/11/01",
            "description": "Wellington is the capital city and second most populous urban area of New Zealand, with 412,500 residents. It is located at the south-western tip of the North Island",
        },
        {
            "id": 2,
            "title": "Marketing/Office Support",
            "category": "Marketing",
            "start": "2018/11/4",
            "description": "Wellington is the capital city and second most populous urban area of New Zealand, with 412,500 residents. It is located at the south-western tip of the North Island",
        },
        {
            "id": 3,
            "title": "Photographer",
            "category": "Photography",
            "start": "2018/11/20",
            "description": "Wellington is the capital city and second most populous urban area of New Zealand, with 412,500 residents. It is located at the south-western tip of the North Island",
        },
        {
            "id": 4,
            "title": "Kitchen Hand",
            "category": "Hospitality",
            "start": "2018/12/24",
            "description": "Wellington is the capital city and second most populous urban area of New Zealand, with 412,500 residents. It is located at the south-western tip of the North Island",
        }
    ]
}